Are Police Biased Against Black Persons
…
df %>% 
  group_by(subject_race,outcome) %>%  summarise(n = n()) %>%  mutate(chisq_pval = chisq.test(n)$p.value)

## `summarise()` has grouped output by 'subject_race'. You can override using the `.groups` argument.

## # A tibble: 25 x 4
## # Groups:   subject_race [5]
##    subject_race           outcome      n chisq_pval
##    <chr>                  <chr>    <int>      <dbl>
##  1 asian/pacific islander arrest      12  4.41e-280
##  2 asian/pacific islander citation    15  4.41e-280
##  3 asian/pacific islander nothing    394  4.41e-280
##  4 asian/pacific islander summons    676  4.41e-280
##  5 asian/pacific islander warning    150  4.41e-280
##  6 black                  arrest      34  0        
##  7 black                  citation    25  0        
##  8 black                  nothing    481  0        
##  9 black                  summons    868  0        
## 10 black                  warning    223  0        
## # ... with 15 more rows
…
